{
  "type": "service_account",
  "project_id": "crewconnect-na",
  "private_key_id": "65886379787b2e4f8518d7cb33e24d1302aedd89",
  "private_key": "-----BEGIN PRIVATE KEY-----\nMIIEvgIBADANBgkqhkiG9w0BAQEFAASCBKgwggSkAgEAAoIBAQDumRR8sHa2hdZi\nHxpCkRqeiDvO7RShvr6jC7j8R6ZXYtQBWAnQCCKgUhLTXPmCYGKfRm9EF1W52yVv\nLstLVy5lVxw9a7K5uRDNKdrt9FGZCoqb6mqc1oha+Qzkc8kQ6t+vkf55qeYIWw7P\nm9g2BaOOasazELckEDdf2DDhwenZCkCg1tr2XHqPXs5HtWiIzfQwb/5uGwJ2zjKG\nUCIkKCvd4BzItX+GYG32FSqlz+ag9vOByUMBbD3olPbStd2rjofpB8rSD4z1m6Dt\nZ2si72DfC8xho92/77DtlGsdcQ7tjhMUy1F6zDP32YfqZ2SNKDyiJaBhyhYV/JZf\n83UXnQQ/AgMBAAECggEAEHpF7e6J5EUN7yzStXIr8nLaHopE+H6hz8TJe7K/DB3p\nIkagNtu4+HVyk2JCYPyjEvjcSkmKRBGcXjdPFt7od1syuhMr/qOHQ4P2eKR81iLi\nO65OupIeTJoSh9xvMFnoJMniVyiimEUhmrjaj7CIARfirQ8kdrsf9+CIT68CpVhr\nxkjlDFfyGWv9H6BFd5PPWx+iqcNgIE/nR43KpH6x2w27qEaNz6vBwyHCVOA1ZQxi\n8fIbvWWi7zkEs+D/dyFQnr8YT/q9wWeIi3YuCWNB8nn6K88xByoI+Kzu+laPgorf\nGqC4hprjZbWNjW7RWuageZr4e1Q3RQ4kiAncskvQMQKBgQD6306kv2zpW2yf6+iz\nW53R5p9JUMW4l3E1ApaoYBTbGaIHxe9jDWUDWmmWol9fkhq5lSplovB1YwPte4Jr\nHOxUb9cNnxthkW+TjMZ09Rl7OpwkwEdLWqmyioUaHvpo8CX+ShQ39ZEzFEncDRRG\nxda+xe2BCpnAwQqsvAHVtBSOQwKBgQDzeYwYgYqiqOlTmSWss2To/qUNuY4yP0p2\nBcG4/HLitgMaqqNgj4SrCeFXrq3TWIQ3TbwRjBub5vgYybMWsW6Ed4J3ywvT0y/m\nvu7uvMBT9BRwqf6+m2ZW7Ejqi3E6HsGyEBH8fFOqFsCyJMxXQvbNJasNOUjY77tp\nAgp35kaYVQKBgQDoep+qVCpdZfeXi0otS61IomrhyhQwJ0clVKzAg6lQEMTyZx6b\nsAH3xYUrrnSrX/2cFPshDInAfm1ZWadWE4t+A9ZKLTN2iwvWtBIEuE1QwNOJyxVG\nY1H2vh7yQdrT/Bd5OrTZ1psjtp1rakNsAlIqn8ikWGp7EWkPAXrBywtxeQKBgQDH\nful2zvYMb8C3Of4vstJVQwl05HyJ2WgmqnLgIyHzd1W1zOmPXilDiBX3JW7ShG3Z\nbr1R125r4OWaUfKG/p1itxXVGC85woo2VG4secZRQ+ZXpkLQZT6GrJbWb6k4CSmG\nwDosmqZm8Lu1fAde3MSitWGhtTVmY5A4624ubiWb/QKBgHYkkgI2FybHXcCe/yHe\nkgiFyuh8DszeiKocJMub4Lqx09Qszl/TNJ4cSv7RfJ5yFHabbT+VsoPiT1vsPrAE\n6mZd5nvnKNLIdRyp+y7c1UOmDhrCKluuk2du4s1Sxi/vjrwBJoUMryrLq8tq+6bp\nFgrXjQfqM/Y0lHVWAcjNX20E\n-----END PRIVATE KEY-----\n",
  "client_email": "crewconnect-na@appspot.gserviceaccount.com",
  "client_id": "106673643664309254636",
  "auth_uri": "https://accounts.google.com/o/oauth2/auth",
  "token_uri": "https://oauth2.googleapis.com/token",
  "auth_provider_x509_cert_url": "https://www.googleapis.com/oauth2/v1/certs",
  "client_x509_cert_url": "https://www.googleapis.com/robot/v1/metadata/x509/crewconnect-na%40appspot.gserviceaccount.com"
}
